[
  {
    "uuid": "72255554-d295-4684-9ff8-8d262849bb3d",
    "title": "Schufa-Auskunft",
    "description": "<p>Schufa-Auskunft-Beschreibung (\"1. Integrationsschritt\")</p>",
    "integrationStep": 1,
    "isOpenApiVerbose": true,
    "contact": {
      "uuid": "ba16bd92-9e64-4de6-916f-d0c4ea91a530",
      "firstname": "Jan-Hendrik",
      "lastname": "Hausner",
      "email": "jan-hendrik.hausner@outlook.com"
    },
    "endpoints": [
      {
        "uuid": "a2058a25-5934-414a-a67f-afeb4c0e1bec",
        "type": "REST",
        "url": "",
        "docsUrl": "https://hennihaus.github.io/bamschufarest"
      }
    ],
    "parameters": [
      {
        "uuid": "caba3d46-2e06-4678-8690-542ce08acda0",
        "name": "socialSecurityNumber",
        "type": "STRING",
        "description": "Zufällige Sozialversicherungsnummer",
        "example": "12123456M123"
      },
      {
        "uuid": "b5beb647-26be-4e5e-bbee-b4279b9c8e90",
        "name": "ratingLevel",
        "type": "CHARACTER",
        "description": "Bewertung des Debitors",
        "example": "A"
      },
      {
        "uuid": "200916e1-9f68-48ba-9fdd-672f27bfe123",
        "name": "delayInMilliseconds",
        "type": "LONG",
        "description": "Zeit in Millisekunden, um die die Antwort verzögert werden soll",
        "example": "0"
      },
      {
        "uuid": "58e5c73b-cad6-4b2c-8e25-635b4e5eb7c6",
        "name": "username",
        "type": "STRING",
        "description": "Benutzername des Teams",
        "example": "Beispielteam"
      },
      {
        "uuid": "e17421f6-26d6-422a-9087-1ce3dcdf6a12",
        "name": "password",
        "type": "STRING",
        "description": "Passwort des Teams",
        "example": "OOfKqWksmA"
      }
    ],
    "responses": [
      {
        "uuid": "d95fe79a-ee08-4481-86d2-6b95f0b96f99",
        "httpStatusCode": 200,
        "contentType": "application/json",
        "description": "Schufa-Score des Debitors",
        "example": "{\"score\": 9858, \"failureRiskInPercent\": 0.77}"
      },
      {
        "uuid": "a4133bba-824a-4063-abdf-29399ccf685f",
        "httpStatusCode": 400,
        "contentType": "application/json",
        "description": "Ungültige Parameter",
        "example": "{\"reasons\": [{\"message\": \"password is required\", \"exception\": \"RequestValidationException\"}], \"dateTime\": \"2022-01-31T07:43:30\"}"
      },
      {
        "uuid": "7736d7b7-9f55-4a2c-8e6a-7f7fb1bf6ce5",
        "httpStatusCode": 404,
        "contentType": "application/json",
        "description": "Team wurde nicht gefunden",
        "example": "{\"reasons\": [{\"message\": \"team not found by username and password\", \"exception\": \"NotFoundException\"}], \"dateTime\": \"2022-01-31T07:43:30\"}"
      },
      {
        "uuid": "52c2b022-7b0b-4017-baba-3dae02f938b0",
        "httpStatusCode": 500,
        "contentType": "application/json",
        "description": "Interner Server Fehler",
        "example": "{\"reasons\": [{\"message\": \"internal server error\", \"exception\": \"Exception\"}], \"dateTime\": \"2022-01-31T07:43:30\"}"
      }
    ],
    "banks": [
      {
        "uuid": "8ab8fef5-1239-42d5-a199-7cb41f68fc21",
        "name": "Schufa",
        "jmsQueue": "schufa",
        "thumbnailUrl": "http://0.0.0.0:8085/picture.jpg",
        "isAsync": false,
        "isActive": true,
        "creditConfiguration": null,
        "updatedAt": "2022-12-26T08:49:22"
      }
    ],
    "updatedAt": "2022-12-26T08:49:22"
  },
  {
    "uuid": "e2aba7e5-9bb8-458b-a927-8e672b1370f2",
    "title": "Deutsche Bank",
    "description": "<p>Synchrone-Bank-Beschreibung (\"2. Integrationsschritt\")</p>",
    "integrationStep": 2,
    "isOpenApiVerbose": true,
    "contact": {
      "uuid": "ba16bd92-9e64-4de6-916f-d0c4ea91a530",
      "firstname": "Jan-Hendrik",
      "lastname": "Hausner",
      "email": "jan-hendrik.hausner@outlook.com"
    },
    "endpoints": [
      {
        "uuid": "08191f25-c0c0-43ac-8244-217965006118",
        "type": "REST",
        "url": "",
        "docsUrl": "https://hennihaus.github.io/bambankrest"
      }
    ],
    "parameters": [
      {
        "uuid": "8fbf56d5-ac30-42aa-aca3-24dde32c63fa",
        "name": "amountInEuros",
        "type": "INTEGER",
        "description": "Gewünschte Höhe des Kredites in Euro",
        "example": "30000"
      },
      {
        "uuid": "77bc374e-dcb6-4859-b356-c511a5860bdc",
        "name": "termInMonths",
        "type": "INTEGER",
        "description": "Gewünschte Länge des Kredites in Monaten",
        "example": "21"
      },
      {
        "uuid": "b5beb647-26be-4e5e-bbee-b4279b9c8e90",
        "name": "ratingLevel",
        "type": "CHARACTER",
        "description": "Bewertung des Debitors",
        "example": "A"
      },
      {
        "uuid": "200916e1-9f68-48ba-9fdd-672f27bfe123",
        "name": "delayInMilliseconds",
        "type": "LONG",
        "description": "Zeit in Millisekunden, um die die Antwort verzögert werden soll",
        "example": "0"
      },
      {
        "uuid": "58e5c73b-cad6-4b2c-8e25-635b4e5eb7c6",
        "name": "username",
        "type": "STRING",
        "description": "Benutzername des Teams",
        "example": "Beispielteam"
      },
      {
        "uuid": "e17421f6-26d6-422a-9087-1ce3dcdf6a12",
        "name": "password",
        "type": "STRING",
        "description": "Passwort des Teams",
        "example": "OOfKqWksmA"
      }
    ],
    "responses": [
      {
        "uuid": "d95fe79a-ee08-4481-86d2-6b95f0b96f99",
        "httpStatusCode": 200,
        "contentType": "application/json",
        "description": "Kreditzins in Prozent",
        "example": "{\"lendingRateInPercent\": 3.8}"
      },
      {
        "uuid": "a4133bba-824a-4063-abdf-29399ccf685f",
        "httpStatusCode": 400,
        "contentType": "application/json",
        "description": "Ungültige Parameter",
        "example": "{\"reasons\": [{\"message\": \"password is required\", \"exception\": \"RequestValidationException\"}], \"dateTime\": \"2022-01-31T07:43:30\"}"
      },
      {
        "uuid": "7736d7b7-9f55-4a2c-8e6a-7f7fb1bf6ce5",
        "httpStatusCode": 404,
        "contentType": "application/json",
        "description": "Team wurde nicht gefunden",
        "example": "{\"reasons\": [{\"message\": \"team not found by username and password\", \"exception\": \"NotFoundException\"}], \"dateTime\": \"2022-01-31T07:43:30\"}"
      },
      {
        "uuid": "52c2b022-7b0b-4017-baba-3dae02f938b0",
        "httpStatusCode": 500,
        "contentType": "application/json",
        "description": "Interner Server Fehler",
        "example": "{\"reasons\": [{\"message\": \"internal server error\", \"exception\": \"Exception\"}], \"dateTime\": \"2022-01-31T07:43:30\"}"
      }
    ],
    "banks": [
      {
        "uuid": "bf6981d4-0413-4767-8232-c7179b169bc7",
        "name": "Deutsche Bank",
        "jmsQueue": "deutschebank",
        "thumbnailUrl": "http://0.0.0.0:8085/picture.jpg",
        "isAsync": false,
        "isActive": true,
        "creditConfiguration": {
          "minAmountInEuros": 10000,
          "maxAmountInEuros": 50000,
          "minTermInMonths": 6,
          "maxTermInMonths": 36,
          "minSchufaRating": "A",
          "maxSchufaRating": "P"
        },
        "updatedAt": "2022-12-26T08:49:22"
      }
    ],
    "updatedAt": "2022-12-26T08:49:22"
  },
  {
    "uuid": "4ff1f9cb-e65d-4c8f-908a-d036700b757e",
    "title": "Asynchrone Banken",
    "description": "<p>Asynchrone-Bank-Beschreibung (\"3. Integrationsschritt\")</p>",
    "integrationStep": 3,
    "isOpenApiVerbose": false,
    "contact": {
      "uuid": "ba16bd92-9e64-4de6-916f-d0c4ea91a530",
      "firstname": "Jan-Hendrik",
      "lastname": "Hausner",
      "email": "jan-hendrik.hausner@outlook.com"
    },
    "endpoints": [
      {
        "uuid": "35540453-ea3d-4f87-a19f-486c29e68b4f",
        "type": "JMS",
        "url": "tcp://bambusinessintegration.wi.hs-furtwangen.de:61616",
        "docsUrl": ""
      }
    ],
    "parameters": [
      {
        "uuid": "0ae3aa19-e421-4c5f-bb9a-d9f932689e5f",
        "name": "requestId",
        "type": "STRING",
        "description": "Zufällige Request-ID",
        "example": "62a47e4d6230501f22e7c28f"
      },
      {
        "uuid": "8fbf56d5-ac30-42aa-aca3-24dde32c63fa",
        "name": "amountInEuros",
        "type": "INTEGER",
        "description": "Gewünschte Höhe des Kredites in Euro",
        "example": "30000"
      },
      {
        "uuid": "77bc374e-dcb6-4859-b356-c511a5860bdc",
        "name": "termInMonths",
        "type": "INTEGER",
        "description": "Gewünschte Länge des Kredites in Monaten",
        "example": "21"
      },
      {
        "uuid": "b5beb647-26be-4e5e-bbee-b4279b9c8e90",
        "name": "ratingLevel",
        "type": "CHARACTER",
        "description": "Bewertung des Debitors",
        "example": "A"
      },
      {
        "uuid": "200916e1-9f68-48ba-9fdd-672f27bfe123",
        "name": "delayInMilliseconds",
        "type": "LONG",
        "description": "Zeit in Millisekunden, um die die Antwort verzögert werden soll",
        "example": "0"
      },
      {
        "uuid": "58e5c73b-cad6-4b2c-8e25-635b4e5eb7c6",
        "name": "username",
        "type": "STRING",
        "description": "Benutzername des Teams",
        "example": "Beispielteam"
      },
      {
        "uuid": "e17421f6-26d6-422a-9087-1ce3dcdf6a12",
        "name": "password",
        "type": "STRING",
        "description": "Passwort des Teams",
        "example": "OOfKqWksmA"
      }
    ],
    "responses": [
      {
        "uuid": "45d2b3fd-f87f-4dde-a8cd-36c02612cd50",
        "httpStatusCode": -1,
        "contentType": "application/json",
        "description": "Kreditzins in Prozent",
        "example": "{\"requestId\": \"123\", \"lendingRateInPercent\": 2.738343644690228}"
      }
    ],
    "banks": [
      {
        "uuid": "78eefcd4-2459-412e-857f-60f7c5d531c9",
        "name": "Sparkasse",
        "jmsQueue": "sparkasse",
        "thumbnailUrl": "http://0.0.0.0:8085/picture.jpg",
        "isAsync": true,
        "isActive": true,
        "creditConfiguration": {
          "minAmountInEuros": 10000,
          "maxAmountInEuros": 50000,
          "minTermInMonths": 6,
          "maxTermInMonths": 36,
          "minSchufaRating": "A",
          "maxSchufaRating": "P"
        },
        "updatedAt": "2022-12-26T08:49:22"
      }
    ],
    "updatedAt": "2022-12-26T08:49:22"
  }
]
